graph TB
    linkStyle default interpolate basis
    A('Remote':<br>GitHub) -- Pull --> B('Local':<br>Your computer)
    B -- Push --> A

    style A fill:White,stroke:DarkBlue,stroke-width:1.5px;
    style B fill:White,stroke:DarkBlue,stroke-width:1.5px;
